WayPoint_;null;0,0,0;0,0,0;0.4,0.4,0.4;
BurgerKing_;Models/Billboards/BurgerKing/BurgerKing.scene;1,-0.5,-7;0,0,0;0.015,0.025,0.065;
Trigger_;Models/trigger/trigger.scene;1,-0.5,-5;0,-0.5,0;1,1,0.15;
Bridge_5lane_;Models/sign_bridges/bridge_5lane/bridge_5lane.scene;1,1,-5;0,-0.5,0;3,1,1;
TrafficDrums_;Models/roadObjects/TrafficDrums/TrafficDrums.scene;0,0,-5;270,0,0;0.7,0.7,0.7;
ConeLamp_;Models/AnimatedRoadSigns/ConeLamp/ConeLamp.scene;0,1,-5;0,0,0;0.2,0.2,0.2;
Ekskalator_;Models/Cars/staticCars/Ekskalator/Ekskalator.scene;0,0,-5;270,90,0;1.7,1.7,1.7;
WheelLoader_;Models/Cars/staticCars/WheelLoader/WheelLoader.scene;0,0,-5;270,90,0;1.7,1.7,1.7;
StayInYourLine_;Models/AnimatedRoadSigns/StayInYourLine/StayInYourLine.scene;0,-0.35,-5;270,0,0;1,1,1;
TrafficSignRoadWorkAhead_;Models/RoadSigns/RoadWorkAhead/RoadWorkAhead.scene;0,-0.5,-5;270,-90,0;0.005,0.005,0.005;
TrafficSignARuralArea_;Models/RoadSigns/ARuralArea/A_RURAL_AREA.scene;0,-0.2,-5;270,-90,0;0.005,0.005,0.005;
DumpTruck_;Models/Cars/staticCars/DumpTruck/DumpTruck.scene;0,0,-5;270,0,0;3.0,3.0,3.0;
WheelLoader_;Models/Cars/staticCars/WheelLoader/WheelLoader.scene;0,0,-5;270,0,0;4.2,4.2,4.2;
Ekskalator_;Models/Cars/staticCars/Ekskalator/Ekskalator.scene;0,0,-5;270,90,0;1.7,1.7,1.7;
CarPolice_;Models/AnimatedRoadSigns/CarPolice/CarPolice.scene;0,0,-5;270,0,0;0.75,0.75,0.75;
TrafficCone_;Models/roadObjects/TrafficCone/TrafficCone.scene;0,0,-5;270,0,0;0.7,0.7,0.7;
TrafficSignShoulderEnds_;Models/RoadSigns/ShoulderEnds/ShoulderEnds.scene;0,-0.5,-5;270,-90,0;0.005,0.005,0.005;
SpeedLimit70_;Models/RoadSigns/speedLimits/speedLimit70/speedLimit70.scene;1,-0.5,-5;0,0,0;1,1,1;
Slippery_;Models/RoadSigns/dangerSigns/Slippery/Slippery.scene;1,-0.5,-5;0,-0.5,0;1,1,1;
TrafficSignRightLaneClosed_;Models/RoadSigns/RightLaneClosed/Right-Lane-Closed.scene;0,-0.5,-5;270,-90,0;0.005,0.005,0.005;
TrafficObjectBarrier_;Models/roadObjects/BarrierProfil/Barrier-Profile.scene;0,-0.18,-15;270,-90,0;0.009,0.009,0.009;
WatchForChildren_;Models/RoadSigns/dangerSigns/WatchForChildren/WatchForChildren.scene;1,-0.5,-5;0,-0.5,0;1,1,1;
Yield_;Models/MotorwayTask/Yield/Yield.scene;1,-0.5,-5;0,-0.5,0;1,1,1;
RoadWork_;Models/RoadSigns/otherSigns/RoadWork/RoadWork.scene;1,-0.5,-5;0,0,0;1,1,1;
AxleWeightLimit_;Models/RoadSigns/prohibitions/AxleWeightLimit/AxleWeightLimit.scene;1,-0.5,-5;0,-0.5,0;1,1,1;
BusStop_;Models/RoadSigns/otherSigns/BusStop/BusStop.scene;1,-0.5,-5;0,-0.5,0;1,1,1;
HighWayExit300m_;Models/MotorwayTask/HighWayExit300m/ObstructionMarker.scene;1,-0.5,-5;0,0,0;1,0.5,1;
Next_exit_;Models/RoadSigns/otherSigns/Next_exit/Next_exit.scene;1,-0.5,-7;0,0,0;0.015,0.015,0.015;
Trigger_;Models/trigger/trigger.scene;1,-0.5,-5;0,-0.5,0;1,1,1;
FinishSign_;Models/finishSign/finishSign.scene;1,1,-5;0,-0.5,0;3,1,1;