// glass2 genrated by blender2ogre 0.6.0

material glass2 
{
    receive_shadows on 

    technique
    {
        pass glass2
        {
            ambient 0.7490196228027344 0.7686275243759155 0.7803922295570374 0.08627445250749588
            diffuse 0.7490196228027344 0.7686275243759155 0.7803922295570374 0.08627445250749588
            specular 1.0 1.0 1.0 0.08627445250749588 12.5
            emissive 0.0 0.0 0.0 0.08627445250749588

            alpha_to_coverage off
            colour_write on
            cull_hardware clockwise
            depth_check on
            depth_func less_equal
            depth_write on
            illumination_stage 
            light_clip_planes off
            light_scissor off
            lighting on
            normalise_normals off
            polygon_mode solid
            scene_blend one zero
            scene_blend_op add
            shading gouraud
            transparent_sorting on

        }
    }
}
