material Material.006/SOLID/TEX/CENTER.png
{
	technique
	{
		pass
		{
			diffuse 0.800000 0.800000 0.800000
			specular 0.500000 0.500000 0.500000 12.500000
			texture_unit
			{
				texture CENTER.png
			}
		}
	}
}
material Material.007/SOLID/TEX/CENTER.png
{
	technique
	{
		pass
		{
			diffuse 0.800000 0.800000 0.800000
			specular 0.500000 0.500000 0.500000 12.500000
			texture_unit
			{
				texture CENTER.png
			}
		}
	}
}
