material model_material_8_21_8
{
	receive_shadows on
	technique
	{
		pass
		{
			ambient 0.500000 0.500000 0.500000 1.000000
			diffuse 0.800000 0.800000 0.800000 1.000000
			specular 0.000000 0.000000 0.000000 1.000000 0.250000
			emissive 0.000000 0.000000 0.000000 1.000000
			texture_unit
			{
				texture texture4_1.jpg
				tex_address_mode wrap
				filtering trilinear
				colour_op alpha_blend
			}
		}
	}
}
material CreateFan_19
{
	receive_shadows on
	technique
	{
		pass
		{
			ambient 0.500000 0.500000 0.500000 0.000000
			diffuse 0.800000 0.800000 0.800000 0.000000
			specular 0.000000 0.000000 0.000000 0.000000 0.250000
			emissive 0.000000 0.000000 0.000000 0.000000
			scene_blend alpha_blend
			depth_write off
			texture_unit
			{
				texture OrangeTree_Billboard.png
				tex_address_mode wrap
				filtering trilinear
			}
		}
	}
}
material CreateFan_18
{
	receive_shadows on
	technique
	{
		pass
		{
			ambient 0.500000 0.500000 0.500000 0.000000
			diffuse 0.800000 0.800000 0.800000 0.000000
			specular 0.000000 0.000000 0.000000 0.000000 0.250000
			emissive 0.000000 0.000000 0.000000 0.000000
			scene_blend alpha_blend
			depth_write off
			texture_unit
			{
				texture Privet_Billboard.png
				tex_address_mode wrap
				filtering trilinear
			}
		}
	}
}
material CreateFan_15
{
	receive_shadows on
	technique
	{
		pass
		{
			ambient 0.500000 0.500000 0.500000 0.000000
			diffuse 0.800000 0.800000 0.800000 0.000000
			specular 0.000000 0.000000 0.000000 0.000000 0.250000
			emissive 0.000000 0.000000 0.000000 0.000000
			scene_blend alpha_blend
			depth_write off
			texture_unit
			{
				texture Philodendron_Billboard.png
				tex_address_mode wrap
				filtering trilinear
			}
		}
	}
}
material CreateFan_14
{
	receive_shadows on
	technique
	{
		pass
		{
			ambient 0.500000 0.500000 0.500000 0.000000
			diffuse 0.800000 0.800000 0.800000 0.000000
			specular 0.000000 0.000000 0.000000 0.000000 0.250000
			emissive 0.000000 0.000000 0.000000 0.000000
			scene_blend alpha_blend
			depth_write off
			texture_unit
			{
				texture Ficus_Billboard.png
				tex_address_mode wrap
				filtering trilinear
			}
		}
	}
}
material CreateFan_17
{
	receive_shadows on
	technique
	{
		pass
		{
			ambient 0.500000 0.500000 0.500000 0.000000
			diffuse 0.800000 0.800000 0.800000 0.000000
			specular 0.000000 0.000000 0.000000 0.000000 0.250000
			emissive 0.000000 0.000000 0.000000 0.000000
			scene_blend alpha_blend
			depth_write off
			texture_unit
			{
				texture PalmLily_Billboard.png
				tex_address_mode wrap
				filtering trilinear
			}
		}
	}
}
material CreateFan_16
{
	receive_shadows on
	technique
	{
		pass
		{
			ambient 0.500000 0.500000 0.500000 0.000000
			diffuse 0.800000 0.800000 0.800000 0.000000
			specular 0.000000 0.000000 0.000000 0.000000 0.250000
			emissive 0.000000 0.000000 0.000000 0.000000
			scene_blend alpha_blend
			depth_write off
			texture_unit
			{
				texture PalmDate_Billboard.png
				tex_address_mode wrap
				filtering trilinear
			}
		}
	}
}
material CreateFan_11
{
	receive_shadows on
	technique
	{
		pass
		{
			ambient 0.500000 0.500000 0.500000 0.000000
			diffuse 0.800000 0.800000 0.800000 0.000000
			specular 0.000000 0.000000 0.000000 0.000000 0.250000
			emissive 0.000000 0.000000 0.000000 0.000000
			scene_blend alpha_blend
			depth_write off
			texture_unit
			{
				texture Rhododendron_Billboard.png
				tex_address_mode wrap
				filtering trilinear
			}
		}
	}
}
material CreateFan_10
{
	receive_shadows on
	technique
	{
		pass
		{
			ambient 0.500000 0.500000 0.500000 0.000000
			diffuse 0.800000 0.800000 0.800000 0.000000
			specular 0.000000 0.000000 0.000000 0.000000 0.250000
			emissive 0.000000 0.000000 0.000000 0.000000
			scene_blend alpha_blend
			depth_write off
			texture_unit
			{
				texture PineCedar_Billboard.png
				tex_address_mode wrap
				filtering trilinear
			}
		}
	}
}
material CreateFan_13
{
	receive_shadows on
	technique
	{
		pass
		{
			ambient 0.500000 0.500000 0.500000 0.000000
			diffuse 0.800000 0.800000 0.800000 0.000000
			specular 0.000000 0.000000 0.000000 0.000000 0.250000
			emissive 0.000000 0.000000 0.000000 0.000000
			scene_blend alpha_blend
			depth_write off
			texture_unit
			{
				texture RoseBush_Billboard.png
				tex_address_mode wrap
				filtering trilinear
			}
		}
	}
}
material CreateFan_12
{
	receive_shadows on
	technique
	{
		pass
		{
			ambient 0.500000 0.500000 0.500000 0.000000
			diffuse 0.800000 0.800000 0.800000 0.000000
			specular 0.000000 0.000000 0.000000 0.000000 0.250000
			emissive 0.000000 0.000000 0.000000 0.000000
			scene_blend alpha_blend
			depth_write off
			texture_unit
			{
				texture Acacia_Billboard.png
				tex_address_mode wrap
				filtering trilinear
			}
		}
	}
}
material model_material_20_4_8
{
	receive_shadows on
	technique
	{
		pass
		{
			ambient 0.500000 0.500000 0.500000 1.000000
			diffuse 0.800000 0.800000 0.800000 1.000000
			specular 0.000000 0.000000 0.000000 1.000000 0.250000
			emissive 0.000000 0.000000 0.000000 1.000000
			texture_unit
			{
				texture texture10.jpg
				tex_address_mode wrap
				filtering trilinear
				colour_op alpha_blend
			}
		}
	}
}
material CityEngineMaterial_16
{
	receive_shadows on
	technique
	{
		pass
		{
			ambient 0.500000 0.500000 0.500000 1.000000
			diffuse 0.800000 0.800000 0.800000 1.000000
			specular 0.000000 0.000000 0.000000 1.000000 0.250000
			emissive 0.000000 0.000000 0.000000 1.000000
			texture_unit
			{
				texture park_bright.png
				tex_address_mode wrap
				filtering trilinear
				colour_op alpha_blend
			}
		}
	}
}
material CityEngineMaterial_79
{
	receive_shadows on
	technique
	{
		pass
		{
			ambient 0.500000 0.500000 0.500000 1.000000
			diffuse 0.800000 0.800000 0.800000 1.000000
			specular 0.000000 0.000000 0.000000 1.000000 0.250000
			emissive 0.000000 0.000000 0.000000 1.000000
			texture_unit
			{
				texture streets.color.reddish.jpg
				tex_address_mode wrap
				filtering trilinear
				colour_op alpha_blend
			}
		}
	}
}
material CityEngineMaterial_78
{
	receive_shadows on
	technique
	{
		pass
		{
			ambient 0.500000 0.500000 0.500000 1.000000
			diffuse 0.373334 0.373334 0.373334 1.000000
			specular 0.250000 0.250000 0.250000 1.000000 2.500000
			emissive 0.000000 0.000000 0.000000 1.000000
			texture_unit
			{
				texture ven.2stories_6tiles.jpg
				tex_address_mode wrap
				filtering trilinear
				colour_op alpha_blend
			}
		}
	}
}
material CityEngineMaterial_77
{
	receive_shadows on
	technique
	{
		pass
		{
			ambient 0.500000 0.500000 0.500000 1.000000
			diffuse 0.373334 0.373334 0.373334 1.000000
			specular 0.250000 0.250000 0.250000 1.000000 2.500000
			emissive 0.000000 0.000000 0.000000 1.000000
			texture_unit
			{
				texture ven.2stories_9tiles.jpg
				tex_address_mode wrap
				filtering trilinear
				colour_op alpha_blend
			}
		}
	}
}
material CityEngineMaterial_76
{
	receive_shadows on
	technique
	{
		pass
		{
			ambient 0.500000 0.500000 0.500000 1.000000
			diffuse 0.373334 0.373334 0.373334 1.000000
			specular 0.250000 0.250000 0.250000 1.000000 2.500000
			emissive 0.000000 0.000000 0.000000 1.000000
			texture_unit
			{
				texture ven.2stories_5tiles.jpg
				tex_address_mode wrap
				filtering trilinear
				colour_op alpha_blend
			}
		}
	}
}
material CityEngineMaterial_75
{
	receive_shadows on
	technique
	{
		pass
		{
			ambient 0.500000 0.500000 0.500000 1.000000
			diffuse 0.373334 0.373334 0.373334 1.000000
			specular 0.250000 0.250000 0.250000 1.000000 2.500000
			emissive 0.000000 0.000000 0.000000 1.000000
			texture_unit
			{
				texture ven.3stories_3tiles.jpg
				tex_address_mode wrap
				filtering trilinear
				colour_op alpha_blend
			}
		}
	}
}
material CityEngineMaterial_74
{
	receive_shadows on
	technique
	{
		pass
		{
			ambient 0.500000 0.500000 0.500000 1.000000
			diffuse 0.373334 0.373334 0.373334 1.000000
			specular 0.250000 0.250000 0.250000 1.000000 2.500000
			emissive 0.000000 0.000000 0.000000 1.000000
			texture_unit
			{
				texture ven.4stories_1tiles.jpg
				tex_address_mode wrap
				filtering trilinear
				colour_op alpha_blend
			}
		}
	}
}
material CityEngineMaterial_73
{
	receive_shadows on
	technique
	{
		pass
		{
			ambient 0.500000 0.500000 0.500000 1.000000
			diffuse 0.373334 0.373334 0.373334 1.000000
			specular 0.250000 0.250000 0.250000 1.000000 2.500000
			emissive 0.000000 0.000000 0.000000 1.000000
			texture_unit
			{
				texture ven.3stories_5tiles.jpg
				tex_address_mode wrap
				filtering trilinear
				colour_op alpha_blend
			}
		}
	}
}
material CityEngineMaterial_72
{
	receive_shadows on
	technique
	{
		pass
		{
			ambient 0.500000 0.500000 0.500000 1.000000
			diffuse 0.800000 0.800000 0.800000 1.000000
			specular 0.000000 0.000000 0.000000 1.000000 0.250000
			emissive 0.000000 0.000000 0.000000 1.000000
			texture_unit
			{
				texture flatroof5.png
				tex_address_mode wrap
				filtering trilinear
				colour_op alpha_blend
			}
		}
	}
}
material CityEngineMaterial_71
{
	receive_shadows on
	technique
	{
		pass
		{
			ambient 0.500000 0.500000 0.500000 1.000000
			diffuse 0.800000 0.800000 0.800000 1.000000
			specular 0.000000 0.000000 0.000000 1.000000 0.250000
			emissive 0.000000 0.000000 0.000000 1.000000
			texture_unit
			{
				texture ven.4stories_1tiles.jpg
				tex_address_mode wrap
				filtering trilinear
				colour_op alpha_blend
			}
		}
	}
}
material CityEngineMaterial_70
{
	receive_shadows on
	technique
	{
		pass
		{
			ambient 0.500000 0.500000 0.500000 1.000000
			diffuse 0.373334 0.373334 0.373334 1.000000
			specular 0.250000 0.250000 0.250000 1.000000 2.500000
			emissive 0.000000 0.000000 0.000000 1.000000
			texture_unit
			{
				texture ven.3stories_6tiles.jpg
				tex_address_mode wrap
				filtering trilinear
				colour_op alpha_blend
			}
		}
	}
}
material CityEngineMaterial_9
{
	receive_shadows on
	technique
	{
		pass
		{
			ambient 0.500000 0.500000 0.500000 1.000000
			diffuse 0.800000 0.800000 0.800000 1.000000
			specular 0.250000 0.250000 0.250000 1.000000 2.500000
			emissive 0.000000 0.000000 0.000000 1.000000
			texture_unit
			{
				texture ven.2stories_9tiles.jpg
				tex_address_mode wrap
				filtering trilinear
				colour_op alpha_blend
			}
		}
	}
}
material CityEngineMaterial_8
{
	receive_shadows on
	technique
	{
		pass
		{
			ambient 0.500000 0.500000 0.500000 1.000000
			diffuse 0.373334 0.373334 0.373334 1.000000
			specular 0.250000 0.250000 0.250000 1.000000 2.500000
			emissive 0.000000 0.000000 0.000000 1.000000
			texture_unit
			{
				texture ven.3stories_4tiles.jpg
				tex_address_mode wrap
				filtering trilinear
				colour_op alpha_blend
			}
		}
	}
}
material model_material_14_9_8
{
	receive_shadows on
	technique
	{
		pass
		{
			ambient 0.500000 0.500000 0.500000 1.000000
			diffuse 0.800000 0.800000 0.800000 1.000000
			specular 0.000000 0.000000 0.000000 1.000000 0.250000
			emissive 0.000000 0.000000 0.000000 1.000000
			texture_unit
			{
				texture texture8_1.jpg
				tex_address_mode wrap
				filtering trilinear
				colour_op alpha_blend
			}
		}
	}
}
material CityEngineMaterial_5
{
	receive_shadows on
	technique
	{
		pass
		{
			ambient 0.500000 0.500000 0.500000 1.000000
			diffuse 0.373334 0.373334 0.373334 1.000000
			specular 0.250000 0.250000 0.250000 1.000000 2.500000
			emissive 0.000000 0.000000 0.000000 1.000000
			texture_unit
			{
				texture ven.3stories_8tiles.jpg
				tex_address_mode wrap
				filtering trilinear
				colour_op alpha_blend
			}
		}
	}
}
material CityEngineMaterial_4
{
	receive_shadows on
	technique
	{
		pass
		{
			ambient 0.500000 0.500000 0.500000 1.000000
			diffuse 0.800000 0.800000 0.800000 1.000000
			specular 0.000000 0.000000 0.000000 1.000000 0.250000
			emissive 0.000000 0.000000 0.000000 1.000000
			texture_unit
			{
				texture ven.3stories_8tiles.jpg
				tex_address_mode wrap
				filtering trilinear
				colour_op alpha_blend
			}
		}
	}
}
material CityEngineMaterial_7
{
	receive_shadows on
	technique
	{
		pass
		{
			ambient 0.500000 0.500000 0.500000 1.000000
			diffuse 0.800000 0.800000 0.800000 1.000000
			specular 0.000000 0.000000 0.000000 1.000000 0.250000
			emissive 0.000000 0.000000 0.000000 1.000000
			texture_unit
			{
				texture ven.3stories_4tiles.jpg
				tex_address_mode wrap
				filtering trilinear
				colour_op alpha_blend
			}
		}
	}
}
material model_material_6_19_8
{
	receive_shadows on
	technique
	{
		pass
		{
			ambient 0.500000 0.500000 0.500000 0.000000
			diffuse 0.800000 0.800000 0.800000 0.000000
			specular 0.000000 0.000000 0.000000 0.000000 0.250000
			emissive 0.000000 0.000000 0.000000 0.000000
			scene_blend alpha_blend
			depth_write off
			texture_unit
			{
				texture texture1.png
				tex_address_mode wrap
				filtering trilinear
			}
		}
	}
}
material CityEngineMaterial_1
{
	receive_shadows on
	technique
	{
		pass
		{
			ambient 0.500000 0.500000 0.500000 1.000000
			diffuse 0.800000 0.800000 0.800000 1.000000
			specular 0.000000 0.000000 0.000000 1.000000 0.250000
			emissive 0.000000 0.000000 0.000000 1.000000
			texture_unit
			{
				texture base.1.jpg
				tex_address_mode wrap
				filtering trilinear
				colour_op alpha_blend
			}
		}
	}
}
material CityEngineMaterial_3
{
	receive_shadows on
	technique
	{
		pass
		{
			ambient 0.500000 0.500000 0.500000 1.000000
			diffuse 0.800000 0.800000 0.800000 1.000000
			specular 0.000000 0.000000 0.000000 1.000000 0.250000
			emissive 0.000000 0.000000 0.000000 1.000000
			texture_unit
			{
				texture rooftile.color.6.jpg
				tex_address_mode wrap
				filtering trilinear
				colour_op alpha_blend
			}
		}
	}
}
material CityEngineMaterial_2
{
	receive_shadows on
	technique
	{
		pass
		{
			ambient 0.500000 0.500000 0.500000 1.000000
			diffuse 0.800000 0.800000 0.800000 1.000000
			specular 0.250000 0.250000 0.250000 1.000000 2.500000
			emissive 0.000000 0.000000 0.000000 1.000000
			texture_unit
			{
				texture ven.3stories_8tiles.jpg
				tex_address_mode wrap
				filtering trilinear
				colour_op alpha_blend
			}
		}
	}
}
material model_material_15_10_
{
	receive_shadows on
	technique
	{
		pass
		{
			ambient 0.500000 0.500000 0.500000 0.000000
			diffuse 0.800000 0.800000 0.800000 0.000000
			specular 0.000000 0.000000 0.000000 0.000000 0.250000
			emissive 0.000000 0.000000 0.000000 0.000000
			scene_blend alpha_blend
			depth_write off
			texture_unit
			{
				texture texture4.png
				tex_address_mode wrap
				filtering trilinear
			}
		}
	}
}
material CityEngineMaterial_19
{
	receive_shadows on
	technique
	{
		pass
		{
			ambient 0.500000 0.500000 0.500000 1.000000
			diffuse 0.800000 0.800000 0.800000 1.000000
			specular 0.000000 0.000000 0.000000 1.000000 0.250000
			emissive 0.000000 0.000000 0.000000 1.000000
			texture_unit
			{
				texture ven.5stories_4tiles.jpg
				tex_address_mode wrap
				filtering trilinear
				colour_op alpha_blend
			}
		}
	}
}
material CityEngineMaterial_18
{
	receive_shadows on
	technique
	{
		pass
		{
			ambient 0.500000 0.500000 0.500000 1.000000
			diffuse 0.800000 0.800000 0.800000 1.000000
			specular 0.000000 0.000000 0.000000 1.000000 0.250000
			emissive 0.000000 0.000000 0.000000 1.000000
			texture_unit
			{
				texture flatroof8.png
				tex_address_mode wrap
				filtering trilinear
				colour_op alpha_blend
			}
		}
	}
}
material CityEngineMaterial_15
{
	receive_shadows on
	technique
	{
		pass
		{
			ambient 0.500000 0.500000 0.500000 1.000000
			diffuse 0.373334 0.373334 0.373334 1.000000
			specular 0.250000 0.250000 0.250000 1.000000 2.500000
			emissive 0.000000 0.000000 0.000000 1.000000
			texture_unit
			{
				texture ven.3stories_7tiles.jpg
				tex_address_mode wrap
				filtering trilinear
				colour_op alpha_blend
			}
		}
	}
}
material CityEngineMaterial_14
{
	receive_shadows on
	technique
	{
		pass
		{
			ambient 0.500000 0.500000 0.500000 1.000000
			diffuse 0.800000 0.800000 0.800000 1.000000
			specular 0.000000 0.000000 0.000000 1.000000 0.250000
			emissive 0.000000 0.000000 0.000000 1.000000
			texture_unit
			{
				texture ven.3stories_7tiles.jpg
				tex_address_mode wrap
				filtering trilinear
				colour_op alpha_blend
			}
		}
	}
}
material CityEngineMaterial_17
{
	receive_shadows on
	technique
	{
		pass
		{
			ambient 0.500000 0.500000 0.500000 1.000000
			diffuse 0.800000 0.800000 0.800000 1.000000
			specular 0.250000 0.250000 0.250000 1.000000 2.500000
			emissive 0.000000 0.000000 0.000000 1.000000
			texture_unit
			{
				texture ven.5stories_4tiles.jpg
				tex_address_mode wrap
				filtering trilinear
				colour_op alpha_blend
			}
		}
	}
}
material CityEngineShapeMateri
{
	receive_shadows on
	technique
	{
		pass
		{
			ambient 0.500000 0.500000 0.500000 1.000000
			diffuse 0.800000 0.800000 0.800000 1.000000
			specular 0.000000 0.000000 0.000000 1.000000 0.250000
			emissive 0.000000 0.000000 0.000000 1.000000
		}
	}
}
material CityEngineMaterial_11
{
	receive_shadows on
	technique
	{
		pass
		{
			ambient 0.500000 0.500000 0.500000 1.000000
			diffuse 0.800000 0.800000 0.800000 1.000000
			specular 0.000000 0.000000 0.000000 1.000000 0.250000
			emissive 0.000000 0.000000 0.000000 1.000000
		}
	}
}
material CityEngineMaterial_10
{
	receive_shadows on
	technique
	{
		pass
		{
			ambient 0.500000 0.500000 0.500000 1.000000
			diffuse 0.800000 0.800000 0.800000 1.000000
			specular 0.000000 0.000000 0.000000 1.000000 0.250000
			emissive 0.000000 0.000000 0.000000 1.000000
			texture_unit
			{
				texture rooftile.color.1.jpg
				tex_address_mode wrap
				filtering trilinear
				colour_op alpha_blend
			}
		}
	}
}
material CityEngineMaterial_13
{
	receive_shadows on
	technique
	{
		pass
		{
			ambient 0.500000 0.500000 0.500000 1.000000
			diffuse 0.800000 0.800000 0.800000 1.000000
			specular 0.000000 0.000000 0.000000 1.000000 0.250000
			emissive 0.000000 0.000000 0.000000 1.000000
			texture_unit
			{
				texture rooftile.color.8.jpg
				tex_address_mode wrap
				filtering trilinear
				colour_op alpha_blend
			}
		}
	}
}
material CityEngineMaterial_12
{
	receive_shadows on
	technique
	{
		pass
		{
			ambient 0.500000 0.500000 0.500000 1.000000
			diffuse 0.800000 0.800000 0.800000 1.000000
			specular 0.250000 0.250000 0.250000 1.000000 2.500000
			emissive 0.000000 0.000000 0.000000 1.000000
			texture_unit
			{
				texture ven.3stories_7tiles.jpg
				tex_address_mode wrap
				filtering trilinear
				colour_op alpha_blend
			}
		}
	}
}
material CityEngineMaterial_68
{
	receive_shadows on
	technique
	{
		pass
		{
			ambient 0.500000 0.500000 0.500000 1.000000
			diffuse 0.800000 0.800000 0.800000 1.000000
			specular 0.250000 0.250000 0.250000 1.000000 2.500000
			emissive 0.000000 0.000000 0.000000 1.000000
			texture_unit
			{
				texture ven.3stories_5tiles.jpg
				tex_address_mode wrap
				filtering trilinear
				colour_op alpha_blend
			}
		}
	}
}
material CityEngineMaterial_69
{
	receive_shadows on
	technique
	{
		pass
		{
			ambient 0.500000 0.500000 0.500000 1.000000
			diffuse 0.800000 0.800000 0.800000 1.000000
			specular 0.000000 0.000000 0.000000 1.000000 0.250000
			emissive 0.000000 0.000000 0.000000 1.000000
			texture_unit
			{
				texture ven.3stories_5tiles.jpg
				tex_address_mode wrap
				filtering trilinear
				colour_op alpha_blend
			}
		}
	}
}
material model_material_18_13_
{
	receive_shadows on
	technique
	{
		pass
		{
			ambient 0.500000 0.500000 0.500000 0.000000
			diffuse 0.800000 0.800000 0.800000 0.000000
			specular 0.000000 0.000000 0.000000 0.000000 0.250000
			emissive 0.000000 0.000000 0.000000 0.000000
			scene_blend alpha_blend
			depth_write off
			texture_unit
			{
				texture texture6_1.png
				tex_address_mode wrap
				filtering trilinear
			}
		}
	}
}
material CityEngineMaterial_61
{
	receive_shadows on
	technique
	{
		pass
		{
			ambient 0.500000 0.500000 0.500000 1.000000
			diffuse 0.373334 0.373334 0.373334 1.000000
			specular 0.250000 0.250000 0.250000 1.000000 2.500000
			emissive 0.000000 0.000000 0.000000 1.000000
			texture_unit
			{
				texture ven.2stories_8tiles.jpg
				tex_address_mode wrap
				filtering trilinear
				colour_op alpha_blend
			}
		}
	}
}
material CityEngineMaterial_62
{
	receive_shadows on
	technique
	{
		pass
		{
			ambient 0.500000 0.500000 0.500000 1.000000
			diffuse 0.800000 0.800000 0.800000 1.000000
			specular 0.000000 0.000000 0.000000 1.000000 0.250000
			emissive 0.000000 0.000000 0.000000 1.000000
			texture_unit
			{
				texture flatroof3.png
				tex_address_mode wrap
				filtering trilinear
				colour_op alpha_blend
			}
		}
	}
}
material CityEngineMaterial_63
{
	receive_shadows on
	technique
	{
		pass
		{
			ambient 0.500000 0.500000 0.500000 1.000000
			diffuse 0.800000 0.800000 0.800000 1.000000
			specular 0.000000 0.000000 0.000000 1.000000 0.250000
			emissive 0.000000 0.000000 0.000000 1.000000
			texture_unit
			{
				texture flatroof7.png
				tex_address_mode wrap
				filtering trilinear
				colour_op alpha_blend
			}
		}
	}
}
material CityEngineMaterial_64
{
	receive_shadows on
	technique
	{
		pass
		{
			ambient 0.500000 0.500000 0.500000 1.000000
			diffuse 0.800000 0.800000 0.800000 1.000000
			specular 0.000000 0.000000 0.000000 1.000000 0.250000
			emissive 0.000000 0.000000 0.000000 1.000000
			texture_unit
			{
				texture ven.3stories_6tiles.jpg
				tex_address_mode wrap
				filtering trilinear
				colour_op alpha_blend
			}
		}
	}
}
material CityEngineMaterial_65
{
	receive_shadows on
	technique
	{
		pass
		{
			ambient 0.500000 0.500000 0.500000 1.000000
			diffuse 0.800000 0.800000 0.800000 1.000000
			specular 0.000000 0.000000 0.000000 1.000000 0.250000
			emissive 0.000000 0.000000 0.000000 1.000000
			texture_unit
			{
				texture ven.2stories_9tiles.jpg
				tex_address_mode wrap
				filtering trilinear
				colour_op alpha_blend
			}
		}
	}
}
material CityEngineMaterial_66
{
	receive_shadows on
	technique
	{
		pass
		{
			ambient 0.500000 0.500000 0.500000 1.000000
			diffuse 0.800000 0.800000 0.800000 1.000000
			specular 0.250000 0.250000 0.250000 1.000000 2.500000
			emissive 0.000000 0.000000 0.000000 1.000000
			texture_unit
			{
				texture ven.2stories_5tiles.jpg
				tex_address_mode wrap
				filtering trilinear
				colour_op alpha_blend
			}
		}
	}
}
material CityEngineMaterial_67
{
	receive_shadows on
	technique
	{
		pass
		{
			ambient 0.500000 0.500000 0.500000 1.000000
			diffuse 0.800000 0.800000 0.800000 1.000000
			specular 0.000000 0.000000 0.000000 1.000000 0.250000
			emissive 0.000000 0.000000 0.000000 1.000000
			texture_unit
			{
				texture ven.2stories_5tiles.jpg
				tex_address_mode wrap
				filtering trilinear
				colour_op alpha_blend
			}
		}
	}
}
material CreateFan_1
{
	receive_shadows on
	technique
	{
		pass
		{
			ambient 0.500000 0.500000 0.500000 0.000000
			diffuse 0.800000 0.800000 0.800000 0.000000
			specular 0.000000 0.000000 0.000000 0.000000 0.250000
			emissive 0.000000 0.000000 0.000000 0.000000
			scene_blend alpha_blend
			depth_write off
			texture_unit
			{
				texture Sweetgum_Billboard.png
				tex_address_mode wrap
				filtering trilinear
			}
		}
	}
}
material CityEngineMaterial_60
{
	receive_shadows on
	technique
	{
		pass
		{
			ambient 0.500000 0.500000 0.500000 1.000000
			diffuse 0.373334 0.373334 0.373334 1.000000
			specular 0.250000 0.250000 0.250000 1.000000 2.500000
			emissive 0.000000 0.000000 0.000000 1.000000
			texture_unit
			{
				texture ven.4stories_4tiles.jpg
				tex_address_mode wrap
				filtering trilinear
				colour_op alpha_blend
			}
		}
	}
}
material CreateFan_3
{
	receive_shadows on
	technique
	{
		pass
		{
			ambient 0.500000 0.500000 0.500000 0.000000
			diffuse 0.800000 0.800000 0.800000 0.000000
			specular 0.000000 0.000000 0.000000 0.000000 0.250000
			emissive 0.000000 0.000000 0.000000 0.000000
			scene_blend alpha_blend
			depth_write off
			texture_unit
			{
				texture DesertWillow_Billboard.png
				tex_address_mode wrap
				filtering trilinear
			}
		}
	}
}
material CreateFan_2
{
	receive_shadows on
	technique
	{
		pass
		{
			ambient 0.500000 0.500000 0.500000 0.000000
			diffuse 0.800000 0.800000 0.800000 0.000000
			specular 0.000000 0.000000 0.000000 0.000000 0.250000
			emissive 0.000000 0.000000 0.000000 0.000000
			scene_blend alpha_blend
			depth_write off
			texture_unit
			{
				texture CactusSaguaro_Billboard.png
				tex_address_mode wrap
				filtering trilinear
			}
		}
	}
}
material CreateFan_5
{
	receive_shadows on
	technique
	{
		pass
		{
			ambient 0.500000 0.500000 0.500000 0.000000
			diffuse 0.800000 0.800000 0.800000 0.000000
			specular 0.000000 0.000000 0.000000 0.000000 0.250000
			emissive 0.000000 0.000000 0.000000 0.000000
			scene_blend alpha_blend
			depth_write off
			texture_unit
			{
				texture PaloVerde_Billboard.png
				tex_address_mode wrap
				filtering trilinear
			}
		}
	}
}
material CreateFan_4
{
	receive_shadows on
	technique
	{
		pass
		{
			ambient 0.500000 0.500000 0.500000 0.000000
			diffuse 0.800000 0.800000 0.800000 0.000000
			specular 0.000000 0.000000 0.000000 0.000000 0.250000
			emissive 0.000000 0.000000 0.000000 0.000000
			scene_blend alpha_blend
			depth_write off
			texture_unit
			{
				texture Alder_Billboard.png
				tex_address_mode wrap
				filtering trilinear
			}
		}
	}
}
material CityEngineMaterial
{
	receive_shadows on
	technique
	{
		pass
		{
			ambient 0.500000 0.500000 0.500000 1.000000
			diffuse 0.800000 0.800000 0.800000 1.000000
			specular 0.000000 0.000000 0.000000 1.000000 0.250000
			emissive 0.000000 0.000000 0.000000 1.000000
			texture_unit
			{
				texture streets.color.bright.jpg
				tex_address_mode wrap
				filtering trilinear
				colour_op alpha_blend
			}
		}
	}
}
material CreateFan_6
{
	receive_shadows on
	technique
	{
		pass
		{
			ambient 0.500000 0.500000 0.500000 0.000000
			diffuse 0.800000 0.800000 0.800000 0.000000
			specular 0.000000 0.000000 0.000000 0.000000 0.250000
			emissive 0.000000 0.000000 0.000000 0.000000
			scene_blend alpha_blend
			depth_write off
			texture_unit
			{
				texture BayLaurel_Billboard.png
				tex_address_mode wrap
				filtering trilinear
			}
		}
	}
}
material CreateFan_9
{
	receive_shadows on
	technique
	{
		pass
		{
			ambient 0.500000 0.500000 0.500000 0.000000
			diffuse 0.800000 0.800000 0.800000 0.000000
			specular 0.000000 0.000000 0.000000 0.000000 0.250000
			emissive 0.000000 0.000000 0.000000 0.000000
			scene_blend alpha_blend
			depth_write off
			texture_unit
			{
				texture Cypress_Billboard.png
				tex_address_mode wrap
				filtering trilinear
			}
		}
	}
}
material CreateFan_8
{
	receive_shadows on
	technique
	{
		pass
		{
			ambient 0.500000 0.500000 0.500000 0.000000
			diffuse 0.800000 0.800000 0.800000 0.000000
			specular 0.000000 0.000000 0.000000 0.000000 0.250000
			emissive 0.000000 0.000000 0.000000 0.000000
			scene_blend alpha_blend
			depth_write off
			texture_unit
			{
				texture Agave_Billboard.png
				tex_address_mode wrap
				filtering trilinear
			}
		}
	}
}
material CreateFan_7
{
	receive_shadows on
	technique
	{
		pass
		{
			ambient 0.500000 0.500000 0.500000 0.000000
			diffuse 0.800000 0.800000 0.800000 0.000000
			specular 0.000000 0.000000 0.000000 0.000000 0.250000
			emissive 0.000000 0.000000 0.000000 0.000000
			scene_blend alpha_blend
			depth_write off
			texture_unit
			{
				texture Buckthorn_Billboard.png
				tex_address_mode wrap
				filtering trilinear
			}
		}
	}
}
material model_material_1_2_8S
{
	receive_shadows on
	technique
	{
		pass
		{
			ambient 0.500000 0.500000 0.500000 1.000000
			diffuse 0.800000 0.800000 0.800000 1.000000
			specular 0.000000 0.000000 0.000000 1.000000 0.250000
			emissive 0.000000 0.000000 0.000000 1.000000
		}
	}
}
material CityEngineMaterial_39
{
	receive_shadows on
	technique
	{
		pass
		{
			ambient 0.500000 0.500000 0.500000 1.000000
			diffuse 0.800000 0.800000 0.800000 1.000000
			specular 0.000000 0.000000 0.000000 1.000000 0.250000
			emissive 0.000000 0.000000 0.000000 1.000000
			texture_unit
			{
				texture rooftile.color.2.jpg
				tex_address_mode wrap
				filtering trilinear
				colour_op alpha_blend
			}
		}
	}
}
material CityEngineMaterial_38
{
	receive_shadows on
	technique
	{
		pass
		{
			ambient 0.500000 0.500000 0.500000 1.000000
			diffuse 0.800000 0.800000 0.800000 1.000000
			specular 0.250000 0.250000 0.250000 1.000000 2.500000
			emissive 0.000000 0.000000 0.000000 1.000000
			texture_unit
			{
				texture ven.4stories_5tiles.jpg
				tex_address_mode wrap
				filtering trilinear
				colour_op alpha_blend
			}
		}
	}
}
material CityEngineMaterial_33
{
	receive_shadows on
	technique
	{
		pass
		{
			ambient 0.500000 0.500000 0.500000 1.000000
			diffuse 0.373334 0.373334 0.373334 1.000000
			specular 0.250000 0.250000 0.250000 1.000000 2.500000
			emissive 0.000000 0.000000 0.000000 1.000000
			texture_unit
			{
				texture ven.2stories_3tiles.jpg
				tex_address_mode wrap
				filtering trilinear
				colour_op alpha_blend
			}
		}
	}
}
material CityEngineMaterial_32
{
	receive_shadows on
	technique
	{
		pass
		{
			ambient 0.500000 0.500000 0.500000 1.000000
			diffuse 0.800000 0.800000 0.800000 1.000000
			specular 0.000000 0.000000 0.000000 1.000000 0.250000
			emissive 0.000000 0.000000 0.000000 1.000000
			texture_unit
			{
				texture ven.2stories_3tiles.jpg
				tex_address_mode wrap
				filtering trilinear
				colour_op alpha_blend
			}
		}
	}
}
material model_material_12_6_8
{
	receive_shadows on
	technique
	{
		pass
		{
			ambient 0.500000 0.500000 0.500000 1.000000
			diffuse 0.800000 0.800000 0.800000 1.000000
			specular 0.000000 0.000000 0.000000 1.000000 0.250000
			emissive 0.000000 0.000000 0.000000 1.000000
		}
	}
}
material CityEngineMaterial_30
{
	receive_shadows on
	technique
	{
		pass
		{
			ambient 0.500000 0.500000 0.500000 1.000000
			diffuse 0.800000 0.800000 0.800000 1.000000
			specular 0.250000 0.250000 0.250000 1.000000 2.500000
			emissive 0.000000 0.000000 0.000000 1.000000
			texture_unit
			{
				texture ven.2stories_3tiles.jpg
				tex_address_mode wrap
				filtering trilinear
				colour_op alpha_blend
			}
		}
	}
}
material CityEngineMaterial_37
{
	receive_shadows on
	technique
	{
		pass
		{
			ambient 0.500000 0.500000 0.500000 1.000000
			diffuse 0.800000 0.800000 0.800000 1.000000
			specular 0.000000 0.000000 0.000000 1.000000 0.250000
			emissive 0.000000 0.000000 0.000000 1.000000
			texture_unit
			{
				texture rooftile.color.9.jpg
				tex_address_mode wrap
				filtering trilinear
				colour_op alpha_blend
			}
		}
	}
}
material CityEngineMaterial_36
{
	receive_shadows on
	technique
	{
		pass
		{
			ambient 0.500000 0.500000 0.500000 1.000000
			diffuse 0.800000 0.800000 0.800000 1.000000
			specular 0.000000 0.000000 0.000000 1.000000 0.250000
			emissive 0.000000 0.000000 0.000000 1.000000
			texture_unit
			{
				texture ven.3stories_3tiles.jpg
				tex_address_mode wrap
				filtering trilinear
				colour_op alpha_blend
			}
		}
	}
}
material CityEngineMaterial_35
{
	receive_shadows on
	technique
	{
		pass
		{
			ambient 0.500000 0.500000 0.500000 1.000000
			diffuse 0.800000 0.800000 0.800000 1.000000
			specular 0.000000 0.000000 0.000000 1.000000 0.250000
			emissive 0.000000 0.000000 0.000000 1.000000
			texture_unit
			{
				texture flatroof9.png
				tex_address_mode wrap
				filtering trilinear
				colour_op alpha_blend
			}
		}
	}
}
material CityEngineMaterial_34
{
	receive_shadows on
	technique
	{
		pass
		{
			ambient 0.500000 0.500000 0.500000 1.000000
			diffuse 0.800000 0.800000 0.800000 1.000000
			specular 0.250000 0.250000 0.250000 1.000000 2.500000
			emissive 0.000000 0.000000 0.000000 1.000000
			texture_unit
			{
				texture ven.3stories_3tiles.jpg
				tex_address_mode wrap
				filtering trilinear
				colour_op alpha_blend
			}
		}
	}
}
material model_material_5_5_8S
{
	receive_shadows on
	technique
	{
		pass
		{
			ambient 0.500000 0.500000 0.500000 1.000000
			diffuse 0.800000 0.800000 0.800000 1.000000
			specular 0.000000 0.000000 0.000000 1.000000 0.250000
			emissive 0.000000 0.000000 0.000000 1.000000
			texture_unit
			{
				texture texture3_1.jpg
				tex_address_mode wrap
				filtering trilinear
				colour_op alpha_blend
			}
		}
	}
}
material CityEngineMaterial_31
{
	receive_shadows on
	technique
	{
		pass
		{
			ambient 0.500000 0.500000 0.500000 1.000000
			diffuse 0.800000 0.800000 0.800000 1.000000
			specular 0.000000 0.000000 0.000000 1.000000 0.250000
			emissive 0.000000 0.000000 0.000000 1.000000
			texture_unit
			{
				texture rooftile.color.4.jpg
				tex_address_mode wrap
				filtering trilinear
				colour_op alpha_blend
			}
		}
	}
}
material model_material_7_20_8
{
	receive_shadows on
	technique
	{
		pass
		{
			ambient 0.500000 0.500000 0.500000 0.000000
			diffuse 0.800000 0.800000 0.800000 0.000000
			specular 0.000000 0.000000 0.000000 0.000000 0.250000
			emissive 0.000000 0.000000 0.000000 0.000000
			scene_blend alpha_blend
			depth_write off
			texture_unit
			{
				texture texture2.png
				tex_address_mode wrap
				filtering trilinear
			}
		}
	}
}
material model_material_11_15_
{
	receive_shadows on
	technique
	{
		pass
		{
			ambient 0.500000 0.500000 0.500000 1.000000
			diffuse 0.800000 0.800000 0.800000 1.000000
			specular 0.000000 0.000000 0.000000 1.000000 0.250000
			emissive 0.000000 0.000000 0.000000 1.000000
			texture_unit
			{
				texture texture6.jpg
				tex_address_mode wrap
				filtering trilinear
				colour_op alpha_blend
			}
		}
	}
}
material CreateFan_20
{
	receive_shadows on
	technique
	{
		pass
		{
			ambient 0.500000 0.500000 0.500000 0.000000
			diffuse 0.800000 0.800000 0.800000 0.000000
			specular 0.000000 0.000000 0.000000 0.000000 0.250000
			emissive 0.000000 0.000000 0.000000 0.000000
			scene_blend alpha_blend
			depth_write off
			texture_unit
			{
				texture Poplar_Billboard.png
				tex_address_mode wrap
				filtering trilinear
			}
		}
	}
}
material CreateFan_21
{
	receive_shadows on
	technique
	{
		pass
		{
			ambient 0.500000 0.500000 0.500000 0.000000
			diffuse 0.800000 0.800000 0.800000 0.000000
			specular 0.000000 0.000000 0.000000 0.000000 0.250000
			emissive 0.000000 0.000000 0.000000 0.000000
			scene_blend alpha_blend
			depth_write off
			texture_unit
			{
				texture WildBushUpright_Billboard.png
				tex_address_mode wrap
				filtering trilinear
			}
		}
	}
}
material model_material_22_7_8
{
	receive_shadows on
	technique
	{
		pass
		{
			ambient 0.500000 0.500000 0.500000 0.000000
			diffuse 0.800000 0.800000 0.800000 0.000000
			specular 0.000000 0.000000 0.000000 0.000000 0.250000
			emissive 0.000000 0.000000 0.000000 0.000000
			scene_blend alpha_blend
			depth_write off
			texture_unit
			{
				texture texture8.png
				tex_address_mode wrap
				filtering trilinear
			}
		}
	}
}
material CityEngineMaterial_46
{
	receive_shadows on
	technique
	{
		pass
		{
			ambient 0.500000 0.500000 0.500000 1.000000
			diffuse 0.800000 0.800000 0.800000 1.000000
			specular 0.250000 0.250000 0.250000 1.000000 2.500000
			emissive 0.000000 0.000000 0.000000 1.000000
			texture_unit
			{
				texture ven.3stories_6tiles.jpg
				tex_address_mode wrap
				filtering trilinear
				colour_op alpha_blend
			}
		}
	}
}
material model_material_16_11_
{
	receive_shadows on
	technique
	{
		pass
		{
			ambient 0.500000 0.500000 0.500000 0.000000
			diffuse 0.800000 0.800000 0.800000 0.000000
			specular 0.000000 0.000000 0.000000 0.000000 0.250000
			emissive 0.000000 0.000000 0.000000 0.000000
			scene_blend alpha_blend
			depth_write off
			texture_unit
			{
				texture texture5.png
				tex_address_mode wrap
				filtering trilinear
			}
		}
	}
}
material CityEngineMaterial_25
{
	receive_shadows on
	technique
	{
		pass
		{
			ambient 0.500000 0.500000 0.500000 1.000000
			diffuse 0.800000 0.800000 0.800000 1.000000
			specular 0.000000 0.000000 0.000000 1.000000 0.250000
			emissive 0.000000 0.000000 0.000000 1.000000
			texture_unit
			{
				texture ven.2stories_7tiles.jpg
				tex_address_mode wrap
				filtering trilinear
				colour_op alpha_blend
			}
		}
	}
}
material CityEngineMaterial_26
{
	receive_shadows on
	technique
	{
		pass
		{
			ambient 0.500000 0.500000 0.500000 1.000000
			diffuse 0.373334 0.373334 0.373334 1.000000
			specular 0.250000 0.250000 0.250000 1.000000 2.500000
			emissive 0.000000 0.000000 0.000000 1.000000
			texture_unit
			{
				texture ven.2stories_7tiles.jpg
				tex_address_mode wrap
				filtering trilinear
				colour_op alpha_blend
			}
		}
	}
}
material CityEngineMaterial_27
{
	receive_shadows on
	technique
	{
		pass
		{
			ambient 0.500000 0.500000 0.500000 1.000000
			diffuse 0.800000 0.800000 0.800000 1.000000
			specular 0.000000 0.000000 0.000000 1.000000 0.250000
			emissive 0.000000 0.000000 0.000000 1.000000
			texture_unit
			{
				texture rooftile.color.3.jpg
				tex_address_mode wrap
				filtering trilinear
				colour_op alpha_blend
			}
		}
	}
}
material CityEngineMaterial_20
{
	receive_shadows on
	technique
	{
		pass
		{
			ambient 0.500000 0.500000 0.500000 1.000000
			diffuse 0.800000 0.800000 0.800000 1.000000
			specular 0.000000 0.000000 0.000000 1.000000 0.250000
			emissive 0.000000 0.000000 0.000000 1.000000
			texture_unit
			{
				texture rooftile.color.5.jpg
				tex_address_mode wrap
				filtering trilinear
				colour_op alpha_blend
			}
		}
	}
}
material CityEngineMaterial_21
{
	receive_shadows on
	technique
	{
		pass
		{
			ambient 0.500000 0.500000 0.500000 1.000000
			diffuse 0.800000 0.800000 0.800000 1.000000
			specular 0.250000 0.250000 0.250000 1.000000 2.500000
			emissive 0.000000 0.000000 0.000000 1.000000
			texture_unit
			{
				texture ven.4stories_3tiles.jpg
				tex_address_mode wrap
				filtering trilinear
				colour_op alpha_blend
			}
		}
	}
}
material CityEngineMaterial_22
{
	receive_shadows on
	technique
	{
		pass
		{
			ambient 0.500000 0.500000 0.500000 1.000000
			diffuse 0.800000 0.800000 0.800000 1.000000
			specular 0.000000 0.000000 0.000000 1.000000 0.250000
			emissive 0.000000 0.000000 0.000000 1.000000
			texture_unit
			{
				texture ven.4stories_3tiles.jpg
				tex_address_mode wrap
				filtering trilinear
				colour_op alpha_blend
			}
		}
	}
}
material CityEngineMaterial_23
{
	receive_shadows on
	technique
	{
		pass
		{
			ambient 0.500000 0.500000 0.500000 1.000000
			diffuse 0.373334 0.373334 0.373334 1.000000
			specular 0.250000 0.250000 0.250000 1.000000 2.500000
			emissive 0.000000 0.000000 0.000000 1.000000
			texture_unit
			{
				texture ven.4stories_3tiles.jpg
				tex_address_mode wrap
				filtering trilinear
				colour_op alpha_blend
			}
		}
	}
}
material CityEngineMaterial_28
{
	receive_shadows on
	technique
	{
		pass
		{
			ambient 0.500000 0.500000 0.500000 1.000000
			diffuse 0.800000 0.800000 0.800000 1.000000
			specular 0.250000 0.250000 0.250000 1.000000 2.500000
			emissive 0.000000 0.000000 0.000000 1.000000
			texture_unit
			{
				texture ven.2stories_8tiles.jpg
				tex_address_mode wrap
				filtering trilinear
				colour_op alpha_blend
			}
		}
	}
}
material CityEngineMaterial_29
{
	receive_shadows on
	technique
	{
		pass
		{
			ambient 0.500000 0.500000 0.500000 1.000000
			diffuse 0.800000 0.800000 0.800000 1.000000
			specular 0.000000 0.000000 0.000000 1.000000 0.250000
			emissive 0.000000 0.000000 0.000000 1.000000
			texture_unit
			{
				texture ven.2stories_8tiles.jpg
				tex_address_mode wrap
				filtering trilinear
				colour_op alpha_blend
			}
		}
	}
}
material CityEngineMaterial_6
{
	receive_shadows on
	technique
	{
		pass
		{
			ambient 0.500000 0.500000 0.500000 1.000000
			diffuse 0.800000 0.800000 0.800000 1.000000
			specular 0.250000 0.250000 0.250000 1.000000 2.500000
			emissive 0.000000 0.000000 0.000000 1.000000
			texture_unit
			{
				texture ven.3stories_4tiles.jpg
				tex_address_mode wrap
				filtering trilinear
				colour_op alpha_blend
			}
		}
	}
}
material model_material_13_3_8
{
	receive_shadows on
	technique
	{
		pass
		{
			ambient 0.500000 0.500000 0.500000 1.000000
			diffuse 0.800000 0.800000 0.800000 1.000000
			specular 0.000000 0.000000 0.000000 1.000000 0.250000
			emissive 0.000000 0.000000 0.000000 1.000000
			texture_unit
			{
				texture texture7_1.jpg
				tex_address_mode wrap
				filtering trilinear
				colour_op alpha_blend
			}
		}
	}
}
material model_material_19_14_
{
	receive_shadows on
	technique
	{
		pass
		{
			ambient 0.500000 0.500000 0.500000 0.000000
			diffuse 0.800000 0.800000 0.800000 0.000000
			specular 0.000000 0.000000 0.000000 0.000000 0.250000
			emissive 0.000000 0.000000 0.000000 0.000000
			scene_blend alpha_blend
			depth_write off
			texture_unit
			{
				texture texture7.png
				tex_address_mode wrap
				filtering trilinear
			}
		}
	}
}
material model_material_1_
{
	receive_shadows on
	technique
	{
		pass
		{
			ambient 0.500000 0.500000 0.500000 1.000000
			diffuse 0.800000 0.800000 0.800000 1.000000
			specular 0.000000 0.000000 0.000000 1.000000 0.250000
			emissive 0.000000 0.000000 0.000000 1.000000
			texture_unit
			{
				texture texture0.jpg
				tex_address_mode wrap
				filtering trilinear
				colour_op alpha_blend
			}
		}
	}
}
material model_material_21_24S
{
	receive_shadows on
	technique
	{
		pass
		{
			ambient 0.500000 0.500000 0.500000 1.000000
			diffuse 0.112000 0.112000 0.112000 1.000000
			specular 0.000000 0.000000 0.000000 1.000000 0.250000
			emissive 0.000000 0.000000 0.000000 1.000000
		}
	}
}
material CityEngineMaterial_51
{
	receive_shadows on
	technique
	{
		pass
		{
			ambient 0.500000 0.500000 0.500000 1.000000
			diffuse 0.800000 0.800000 0.800000 1.000000
			specular 0.250000 0.250000 0.250000 1.000000 2.500000
			emissive 0.000000 0.000000 0.000000 1.000000
			texture_unit
			{
				texture ven.2stories_2tiles.jpg
				tex_address_mode wrap
				filtering trilinear
				colour_op alpha_blend
			}
		}
	}
}
material CityEngineMaterial_50
{
	receive_shadows on
	technique
	{
		pass
		{
			ambient 0.500000 0.500000 0.500000 1.000000
			diffuse 0.800000 0.800000 0.800000 1.000000
			specular 0.000000 0.000000 0.000000 1.000000 0.250000
			emissive 0.000000 0.000000 0.000000 1.000000
			texture_unit
			{
				texture flatroof6.png
				tex_address_mode wrap
				filtering trilinear
				colour_op alpha_blend
			}
		}
	}
}
material CityEngineMaterial_53
{
	receive_shadows on
	technique
	{
		pass
		{
			ambient 0.500000 0.500000 0.500000 1.000000
			diffuse 0.800000 0.800000 0.800000 1.000000
			specular 0.000000 0.000000 0.000000 1.000000 0.250000
			emissive 0.000000 0.000000 0.000000 1.000000
			texture_unit
			{
				texture ven.2stories_2tiles.jpg
				tex_address_mode wrap
				filtering trilinear
				colour_op alpha_blend
			}
		}
	}
}
material CityEngineMaterial_52
{
	receive_shadows on
	technique
	{
		pass
		{
			ambient 0.500000 0.500000 0.500000 1.000000
			diffuse 0.800000 0.800000 0.800000 1.000000
			specular 0.000000 0.000000 0.000000 1.000000 0.250000
			emissive 0.000000 0.000000 0.000000 1.000000
			texture_unit
			{
				texture flatroof2.png
				tex_address_mode wrap
				filtering trilinear
				colour_op alpha_blend
			}
		}
	}
}
material CityEngineMaterial_55
{
	receive_shadows on
	technique
	{
		pass
		{
			ambient 0.500000 0.500000 0.500000 1.000000
			diffuse 0.800000 0.800000 0.800000 1.000000
			specular 0.250000 0.250000 0.250000 1.000000 2.500000
			emissive 0.000000 0.000000 0.000000 1.000000
			texture_unit
			{
				texture ven.4stories_4tiles.jpg
				tex_address_mode wrap
				filtering trilinear
				colour_op alpha_blend
			}
		}
	}
}
material CityEngineMaterial_54
{
	receive_shadows on
	technique
	{
		pass
		{
			ambient 0.500000 0.500000 0.500000 1.000000
			diffuse 0.373334 0.373334 0.373334 1.000000
			specular 0.250000 0.250000 0.250000 1.000000 2.500000
			emissive 0.000000 0.000000 0.000000 1.000000
			texture_unit
			{
				texture ven.2stories_2tiles.jpg
				tex_address_mode wrap
				filtering trilinear
				colour_op alpha_blend
			}
		}
	}
}
material CityEngineMaterial_57
{
	receive_shadows on
	technique
	{
		pass
		{
			ambient 0.500000 0.500000 0.500000 1.000000
			diffuse 0.800000 0.800000 0.800000 1.000000
			specular 0.000000 0.000000 0.000000 1.000000 0.250000
			emissive 0.000000 0.000000 0.000000 1.000000
			texture_unit
			{
				texture rooftile.color.7.jpg
				tex_address_mode wrap
				filtering trilinear
				colour_op alpha_blend
			}
		}
	}
}
material CityEngineMaterial_56
{
	receive_shadows on
	technique
	{
		pass
		{
			ambient 0.500000 0.500000 0.500000 1.000000
			diffuse 0.800000 0.800000 0.800000 1.000000
			specular 0.000000 0.000000 0.000000 1.000000 0.250000
			emissive 0.000000 0.000000 0.000000 1.000000
			texture_unit
			{
				texture flatroof1.png
				tex_address_mode wrap
				filtering trilinear
				colour_op alpha_blend
			}
		}
	}
}
material CityEngineMaterial_59
{
	receive_shadows on
	technique
	{
		pass
		{
			ambient 0.500000 0.500000 0.500000 1.000000
			diffuse 0.800000 0.800000 0.800000 1.000000
			specular 0.000000 0.000000 0.000000 1.000000 0.250000
			emissive 0.000000 0.000000 0.000000 1.000000
			texture_unit
			{
				texture ven.4stories_4tiles.jpg
				tex_address_mode wrap
				filtering trilinear
				colour_op alpha_blend
			}
		}
	}
}
material CityEngineMaterial_58
{
	receive_shadows on
	technique
	{
		pass
		{
			ambient 0.500000 0.500000 0.500000 1.000000
			diffuse 0.800000 0.800000 0.800000 1.000000
			specular 0.250000 0.250000 0.250000 1.000000 2.500000
			emissive 0.000000 0.000000 0.000000 1.000000
			texture_unit
			{
				texture ven.4stories_1tiles.jpg
				tex_address_mode wrap
				filtering trilinear
				colour_op alpha_blend
			}
		}
	}
}
material model_material_17_12_
{
	receive_shadows on
	technique
	{
		pass
		{
			ambient 0.500000 0.500000 0.500000 1.000000
			diffuse 0.800000 0.800000 0.800000 1.000000
			specular 0.000000 0.000000 0.000000 1.000000 0.250000
			emissive 0.000000 0.000000 0.000000 1.000000
			texture_unit
			{
				texture texture9.jpg
				tex_address_mode wrap
				filtering trilinear
				colour_op alpha_blend
			}
		}
	}
}
material CityEngineMaterial_24
{
	receive_shadows on
	technique
	{
		pass
		{
			ambient 0.500000 0.500000 0.500000 1.000000
			diffuse 0.800000 0.800000 0.800000 1.000000
			specular 0.250000 0.250000 0.250000 1.000000 2.500000
			emissive 0.000000 0.000000 0.000000 1.000000
			texture_unit
			{
				texture ven.2stories_7tiles.jpg
				tex_address_mode wrap
				filtering trilinear
				colour_op alpha_blend
			}
		}
	}
}
material model_material_4_22_8
{
	receive_shadows on
	technique
	{
		pass
		{
			ambient 0.500000 0.500000 0.500000 0.000000
			diffuse 0.800000 0.800000 0.800000 0.000000
			specular 0.000000 0.000000 0.000000 0.000000 0.250000
			emissive 0.000000 0.000000 0.000000 0.000000
			scene_blend alpha_blend
			depth_write off
			texture_unit
			{
				texture texture0_1.png
				tex_address_mode wrap
				filtering trilinear
			}
		}
	}
}
material CityEngineMaterial_42
{
	receive_shadows on
	technique
	{
		pass
		{
			ambient 0.500000 0.500000 0.500000 1.000000
			diffuse 0.800000 0.800000 0.800000 1.000000
			specular 0.250000 0.250000 0.250000 1.000000 2.500000
			emissive 0.000000 0.000000 0.000000 1.000000
			texture_unit
			{
				texture ven.3stories_9tiles.jpg
				tex_address_mode wrap
				filtering trilinear
				colour_op alpha_blend
			}
		}
	}
}
material CityEngineMaterial_43
{
	receive_shadows on
	technique
	{
		pass
		{
			ambient 0.500000 0.500000 0.500000 1.000000
			diffuse 0.800000 0.800000 0.800000 1.000000
			specular 0.000000 0.000000 0.000000 1.000000 0.250000
			emissive 0.000000 0.000000 0.000000 1.000000
			texture_unit
			{
				texture ven.3stories_9tiles.jpg
				tex_address_mode wrap
				filtering trilinear
				colour_op alpha_blend
			}
		}
	}
}
material CityEngineMaterial_40
{
	receive_shadows on
	technique
	{
		pass
		{
			ambient 0.500000 0.500000 0.500000 1.000000
			diffuse 0.800000 0.800000 0.800000 1.000000
			specular 0.000000 0.000000 0.000000 1.000000 0.250000
			emissive 0.000000 0.000000 0.000000 1.000000
			texture_unit
			{
				texture ven.4stories_5tiles.jpg
				tex_address_mode wrap
				filtering trilinear
				colour_op alpha_blend
			}
		}
	}
}
material CityEngineMaterial_41
{
	receive_shadows on
	technique
	{
		pass
		{
			ambient 0.500000 0.500000 0.500000 1.000000
			diffuse 0.373334 0.373334 0.373334 1.000000
			specular 0.250000 0.250000 0.250000 1.000000 2.500000
			emissive 0.000000 0.000000 0.000000 1.000000
			texture_unit
			{
				texture ven.4stories_5tiles.jpg
				tex_address_mode wrap
				filtering trilinear
				colour_op alpha_blend
			}
		}
	}
}
material model_material_12
{
	receive_shadows on
	technique
	{
		pass
		{
			ambient 0.500000 0.500000 0.500000 0.000000
			diffuse 0.800000 0.800000 0.800000 0.000000
			specular 0.000000 0.000000 0.000000 0.000000 0.250000
			emissive 0.000000 0.000000 0.000000 0.000000
			scene_blend alpha_blend
			depth_write off
			texture_unit
			{
				texture texture3.png
				tex_address_mode wrap
				filtering trilinear
			}
		}
	}
}
material CityEngineMaterial_47
{
	receive_shadows on
	technique
	{
		pass
		{
			ambient 0.500000 0.500000 0.500000 1.000000
			diffuse 0.800000 0.800000 0.800000 1.000000
			specular 0.250000 0.250000 0.250000 1.000000 2.500000
			emissive 0.000000 0.000000 0.000000 1.000000
			texture_unit
			{
				texture ven.2stories_6tiles.jpg
				tex_address_mode wrap
				filtering trilinear
				colour_op alpha_blend
			}
		}
	}
}
material CityEngineMaterial_44
{
	receive_shadows on
	technique
	{
		pass
		{
			ambient 0.500000 0.500000 0.500000 1.000000
			diffuse 0.373334 0.373334 0.373334 1.000000
			specular 0.250000 0.250000 0.250000 1.000000 2.500000
			emissive 0.000000 0.000000 0.000000 1.000000
			texture_unit
			{
				texture ven.3stories_9tiles.jpg
				tex_address_mode wrap
				filtering trilinear
				colour_op alpha_blend
			}
		}
	}
}
material CityEngineMaterial_45
{
	receive_shadows on
	technique
	{
		pass
		{
			ambient 0.500000 0.500000 0.500000 1.000000
			diffuse 0.373334 0.373334 0.373334 1.000000
			specular 0.250000 0.250000 0.250000 1.000000 2.500000
			emissive 0.000000 0.000000 0.000000 1.000000
			texture_unit
			{
				texture ven.5stories_4tiles.jpg
				tex_address_mode wrap
				filtering trilinear
				colour_op alpha_blend
			}
		}
	}
}
material CityEngineMaterial_48
{
	receive_shadows on
	technique
	{
		pass
		{
			ambient 0.500000 0.500000 0.500000 1.000000
			diffuse 0.800000 0.800000 0.800000 1.000000
			specular 0.000000 0.000000 0.000000 1.000000 0.250000
			emissive 0.000000 0.000000 0.000000 1.000000
			texture_unit
			{
				texture flatroof4.png
				tex_address_mode wrap
				filtering trilinear
				colour_op alpha_blend
			}
		}
	}
}
material CityEngineMaterial_49
{
	receive_shadows on
	technique
	{
		pass
		{
			ambient 0.500000 0.500000 0.500000 1.000000
			diffuse 0.800000 0.800000 0.800000 1.000000
			specular 0.000000 0.000000 0.000000 1.000000 0.250000
			emissive 0.000000 0.000000 0.000000 1.000000
			texture_unit
			{
				texture ven.2stories_6tiles.jpg
				tex_address_mode wrap
				filtering trilinear
				colour_op alpha_blend
			}
		}
	}
}
material CreateFan
{
	receive_shadows on
	technique
	{
		pass
		{
			ambient 0.500000 0.500000 0.500000 0.000000
			diffuse 0.800000 0.800000 0.800000 0.000000
			specular 0.000000 0.000000 0.000000 0.000000 0.250000
			emissive 0.000000 0.000000 0.000000 0.000000
			scene_blend alpha_blend
			depth_write off
			texture_unit
			{
				texture WildBushSpreading_Billboard.png
				tex_address_mode wrap
				filtering trilinear
			}
		}
	}
}
