// _auto_3 genrated by blender2ogre 0.6.0

material _auto_3 
{
    receive_shadows on 

    technique
    {
        pass _auto_3
        {
            ambient 0.0 0.0 0.4000000059604645 1.0
            diffuse 0.0 0.0 0.32000000953674324 1.0
            specular 0.16500000655651093 0.16500000655651093 0.16500000655651093 1.0 12.5
            emissive 0.0 0.0 0.0 1.0

            alpha_to_coverage off
            colour_write on
            cull_hardware clockwise
            depth_check on
            depth_func less_equal
            depth_write on
            illumination_stage 
            light_clip_planes off
            light_scissor off
            lighting on
            normalise_normals off
            polygon_mode solid
            scene_blend one zero
            scene_blend_op add
            shading gouraud
            transparent_sorting on

        }
    }
}
